除特殊指定，所有字体都使用
resource/font/方正准圆_GBK.TTF

如果文字可以使用半透明颜色 (经过实践检验，并不能)
- 对话框文字：rgba(227, 233, 202, 1); 描边rgba(18,13,25, 0.50);
- 手机文字：rgba(50, 53, 46, 1); 阴影rgba(0, 0, 0, 0.16);
- 录音机文字：rgba(71, 14, 9, 1); 描边rgba(18,13,25, 0.15);
- 家庭作业列表文字：rgba(18, 5, 0, 1); 描边 rgba(18, 5, 0, 0.1);
- 家庭作业题目文字：rgba(18, 5, 0, 1); 描边 无;
- 家庭作业“习题3”：rgba(8, 83, 170, 1); 描边 无;

如果文字不能使用半透明颜色：
- 对话框文字：rgb(227, 233, 202)=0xFFE4EBC6; 描边=0xFF221C24;
- 手机文字：rgb(50, 53, 46); 阴影rgb(144, 151, 131) = #909783
- 录音机文字：rgb(71, 14, 9); 描边 = #905A24
- 家庭作业列表文字：rgb(18, 5, 0); 阴影 无;
- 家庭作业题目文字：rgb(18, 5, 0)=#120500; 描边 = #C3C3B9
- 家庭作业日期文字: #ededea
- 家庭作业“习题3”：rgb(8, 83, 170); 阴影 无
- 警告框标题：rgb(71, 14, 9) = #470e09   描边 = #C5C1BD
- 警告框内容：rgb(153, 148, 147) = #999493
- 警告框选项：rgb(27, 8, 10) = #1b080a   描边 = CECAC5

- system面板 设置项名称文字颜色：D5D1CC  描边：C5C1BD
- system面板 设置项选项文字颜色：676665  描边：D5D1CC
- system面板 灰色信息文字颜色：C5C1BD  无描边

  消息框（好感度，Mission Start之类的）
- 好感度

短信List样本
◇ 余弦          10分钟之后...◇ 余弦          你怎么还没来◇ 余弦          我到了。◇ 余弦          下午5点在武...◎ +11 1001...   利亚新城花...◎ +11 1003...  乐美教育在...◎ +11 9002...  企鹅公司最...



From：+11 10014999885Wed, Aug 31, 2011利亚新城花园现价699————————————利亚新城花园，至尊荣享铂金房产，胜利西路核心地段，商圈中心抢占城市稀缺资源，西班牙黄金海岸，豪装跃层，现在拨打电话仅售每平米6998，详情请垂询695-8888。



家庭作业状态分为以下几种：
未出现、还没点开过●、还没做○、做错了Ｘ、做对了√、跳过了( )
另一种想法：未出现、还没点开过●、还没做○、做错了w、做对了r、跳过了s
家庭作业存档的数据：
    题目的解答状态：show=0/1  open=0/1  right=0/1/2
    每道题目的涂卡状态：A=0/1  B=0/1  C=0/1  D=0/1